{
  "type": "service_account",
  "project_id": "prefab-basis-272921",
  "private_key_id": "98c40e5716bd176c9b78c97aa8207ccee24e1e6b",
  "private_key": "-----BEGIN PRIVATE KEY-----\nMIIEvAIBADANBgkqhkiG9w0BAQEFAASCBKYwggSiAgEAAoIBAQDaKfKV12rkYAeR\nQjvjHcYUrMKseUJWXLQhMgg7UFLr+fQZnWwVeEjfYH6HCM3NuYiFtaQD74jIsFk5\nkRQeH4tObPCjC7RSi7Ooem2HP50GuWz6N/ydFEGO9qwoETtLrVvoeKxleq6EPxIj\nDMoKVRJUf7GQwdahbh+Atj532W3RUx3b8pPXSZrG//gUW7/oQQretfLhuWNGSJKX\nRI+kc6kLlYaMkkV5t9OHv0PFCbAWErWy4zRGiBD/4/AW2qjiWDmwRr7rZyK7pxFX\nTkVlS8w7AZ5GgN5VLG6dv2yg/KAugI/fu6S7hkfmVkrycgGb06rVtlYatVhFOgR0\nh8ejxT1DAgMBAAECggEAavn2whMHj0SncUsRIqUO5ERykTBEnySGD2EBOFSC1MOU\nNptCzKRW13HxmTVv9Vjs4OPYsTVb1Uzj8554Ru0g2iwBM3Ih0fg++HZQDunajdmO\n3oNlk4DDRN8gO+V3Nfyj/LJvlrM5sA9dTWKQD9D3VAfpghoKrM3bFLpIl2w+tU0s\np+OSF8LkVL5C7HaSt/ri3cS+MqxwsdRudPvbsN8EcCzYuJseBBhWhxTfkXR1JO8t\nK3DodpXyJkWbiqs9oUtmdn3sgSGZZZ/8sZEefpzUmWF2AAdHtC7Pi5dcF2eA2pqh\ncBIOX/Z3D4RZWmpygm84wWHtmJKBBgbdOCdEoZ/fQQKBgQDujizzvZkwRmo78kNB\ndMu4DUhoGSvI95wG0InVzJD2XpTWP6hslHp/TODxiaUmufnAwXMSePAdK4HT5L2i\n5w7GTiAEOOxoaGpgnk+jbSiU+SYD9EeAh7L+023exIb4N0YsnnjhhySXYrC58irV\nvsPta5H7rKwbnlHFcfKtYx4nbQKBgQDqHgl7LLRVqm8ucQtO+/w3J4dywx158lp1\n5+nxoeKn2SghP7DiZbsLtfdQVVy1g1H6RoggeASa1IM8HzINNejW2Xslg8fyiloN\nDcWYOIqPFxxrmIn8ZZuQ2LrmpU4kWSbrCkxl45kkQzB9MO/SuzUfnc4Sda7K5Cbd\ntBiZ9WqZbwKBgGWSI5GkKJVlZdYgUIKOOC8leK7aCMqIouZD5GwjrZU4sCaI9C1H\nCuEo2p38/VR/2tc3hsdWtuW0oJKX0iaKOsA0g21Iz1+lFaYNwdrTn3POoWENoWQY\nYx4c56ryAoWtAzP8RXvBDtNmMdj6Q0K+9q0gIAgIfT9FKYvn+Gvax/wBAoGASioT\nxNJnmk+wgtzKwU2wG2TJUsCeoNf2ci1yfdpTq+pt/QJpLX8entoZK3ivMs0T9h3L\n18VNaCL0I+KZ/3dZeF5S1ZKGj73mQwZe1xbqReQDW85pv+wMOPl/U7uAIqGfY4vS\noeBUzhj+zlnnTzGA5bAe7Ngc9CcMbOU1eeg1yb8CgYB3ti17vAsQWzTzTWqYQ/JE\nEL2hhCXAifCdv2lrNsOv6kH7W80nd/HoOV4NzYsGKreqBhMSNxZWqtIcX+u/gA3i\nsiMN5yrDj2AtRzHtcjwaskDap7vdoL53AZj8MORhR7znNUJdsnGz42WwCXDklj5D\na+2eZ6BeiAAFOv1mAq4t9g==\n-----END PRIVATE KEY-----\n",
  "client_email": "pedro-470@prefab-basis-272921.iam.gserviceaccount.com",
  "client_id": "112288751134899175368",
  "auth_uri": "https://accounts.google.com/o/oauth2/auth",
  "token_uri": "https://oauth2.googleapis.com/token",
  "auth_provider_x509_cert_url": "https://www.googleapis.com/oauth2/v1/certs",
  "client_x509_cert_url": "https://www.googleapis.com/robot/v1/metadata/x509/pedro-470%40prefab-basis-272921.iam.gserviceaccount.com"
}